^F:\ПАРАЛЛЕЛЬНОЕ ПРОГРАММИРОВАНИЕ (ПП)\ЛАБОРАТОРНЫЕ РАБОТЫ\LAB1_PARPROGR\LAB1_PARPROGR\STDAFX.CPP
/c /ZI /nologo /W3 /WX- /Od /Oy- /D WIN32 /D _DEBUG /D _CONSOLE /D _UNICODE /D UNICODE /Gm /EHsc /RTC1 /MDd /GS /fp:precise /Zc:wchar_t /Zc:forScope /Zc:inline /Yc"stdafx.h" /Fp"DEBUG\LAB1_PARPROGR.PCH" /Fo"DEBUG\\" /Fd"DEBUG\VC140.PDB" /Gd /TP /analyze- F:\ПАРАЛЛЕЛЬНОЕ ПРОГРАММИРОВАНИЕ (ПП)\ЛАБОРАТОРНЫЕ РАБОТЫ\LAB1_PARPROGR\LAB1_PARPROGR\STDAFX.CPP
^F:\ПАРАЛЛЕЛЬНОЕ ПРОГРАММИРОВАНИЕ (ПП)\ЛАБОРАТОРНЫЕ РАБОТЫ\LAB1_PARPROGR\LAB1_PARPROGR\LAB1_PARPROGR.CPP
/c /ZI /nologo /W3 /WX- /Od /Oy- /D WIN32 /D _DEBUG /D _CONSOLE /D _UNICODE /D UNICODE /Gm /EHsc /RTC1 /MDd /GS /fp:precise /Zc:wchar_t /Zc:forScope /Zc:inline /Yu"stdafx.h" /Fp"DEBUG\LAB1_PARPROGR.PCH" /Fo"DEBUG\\" /Fd"DEBUG\VC140.PDB" /Gd /TP /analyze- F:\ПАРАЛЛЕЛЬНОЕ ПРОГРАММИРОВАНИЕ (ПП)\ЛАБОРАТОРНЫЕ РАБОТЫ\LAB1_PARPROGR\LAB1_PARPROGR\LAB1_PARPROGR.CPP
^F:\УЧЕБА 6 СЕМЕСТР\ПАРАЛЛЕЛЬНОЕ ПРОГРАММИРОВАНИЕ (ПП)\ЛАБОРАТОРНЫЕ РАБОТЫ\LAB1_PARPROGR\LAB1_PARPROGR\STDAFX.CPP
/c /ZI /nologo /W3 /WX- /diagnostics:classic /Od /Oy- /D WIN32 /D _DEBUG /D _CONSOLE /D _UNICODE /D UNICODE /Gm /EHsc /RTC1 /MDd /GS /fp:precise /Zc:wchar_t /Zc:forScope /Zc:inline /Yc"stdafx.h" /Fp"DEBUG\LAB1_PARPROGR.PCH" /Fo"DEBUG\\" /Fd"DEBUG\VC141.PDB" /Gd /TP /analyze- F:\УЧЕБА 6 СЕМЕСТР\ПАРАЛЛЕЛЬНОЕ ПРОГРАММИРОВАНИЕ (ПП)\ЛАБОРАТОРНЫЕ РАБОТЫ\LAB1_PARPROGR\LAB1_PARPROGR\STDAFX.CPP
^F:\УЧЕБА 6 СЕМЕСТР\ПАРАЛЛЕЛЬНОЕ ПРОГРАММИРОВАНИЕ (ПП)\ЛАБОРАТОРНЫЕ РАБОТЫ\LAB1_PARPROGR\LAB1_PARPROGR\LAB1_PARPROGR.CPP
/c /ZI /nologo /W3 /WX- /diagnostics:classic /Od /Oy- /D WIN32 /D _DEBUG /D _CONSOLE /D _UNICODE /D UNICODE /Gm /EHsc /RTC1 /MDd /GS /fp:precise /Zc:wchar_t /Zc:forScope /Zc:inline /Yu"stdafx.h" /Fp"DEBUG\LAB1_PARPROGR.PCH" /Fo"DEBUG\\" /Fd"DEBUG\VC141.PDB" /Gd /TP /analyze- F:\УЧЕБА 6 СЕМЕСТР\ПАРАЛЛЕЛЬНОЕ ПРОГРАММИРОВАНИЕ (ПП)\ЛАБОРАТОРНЫЕ РАБОТЫ\LAB1_PARPROGR\LAB1_PARPROGR\LAB1_PARPROGR.CPP
^C:\USERS\DINA\DESKTOP\LAB1_PARPROGR\LAB1_PARPROGR\STDAFX.CPP
/c /ZI /nologo /W3 /WX- /diagnostics:classic /Od /Oy- /D WIN32 /D _DEBUG /D _CONSOLE /D _UNICODE /D UNICODE /Gm /EHsc /RTC1 /MDd /GS /fp:precise /Zc:wchar_t /Zc:forScope /Zc:inline /Yc"stdafx.h" /Fp"DEBUG\LAB1_PARPROGR.PCH" /Fo"DEBUG\\" /Fd"DEBUG\VC141.PDB" /Gd /TP /analyze- C:\USERS\DINA\DESKTOP\LAB1_PARPROGR\LAB1_PARPROGR\STDAFX.CPP
^C:\USERS\DINA\DESKTOP\LAB1_PARPROGR\LAB1_PARPROGR\LAB1_PARPROGR.CPP
/c /ZI /nologo /W3 /WX- /diagnostics:classic /Od /Oy- /D WIN32 /D _DEBUG /D _CONSOLE /D _UNICODE /D UNICODE /Gm /EHsc /RTC1 /MDd /GS /fp:precise /Zc:wchar_t /Zc:forScope /Zc:inline /Yu"stdafx.h" /Fp"DEBUG\LAB1_PARPROGR.PCH" /Fo"DEBUG\\" /Fd"DEBUG\VC141.PDB" /Gd /TP /analyze- C:\USERS\DINA\DESKTOP\LAB1_PARPROGR\LAB1_PARPROGR\LAB1_PARPROGR.CPP
^C:\USERS\DINA\DESKTOP\LAB4_PARPROGR\LAB1_PARPROGR\STDAFX.CPP
/c /ZI /nologo /W3 /WX- /diagnostics:classic /Od /Oy- /D WIN32 /D _DEBUG /D _CONSOLE /D _UNICODE /D UNICODE /Gm /EHsc /RTC1 /MDd /GS /fp:precise /Zc:wchar_t /Zc:forScope /Zc:inline /Yc"stdafx.h" /Fp"DEBUG\LAB1_PARPROGR.PCH" /Fo"DEBUG\\" /Fd"DEBUG\VC141.PDB" /Gd /TP /analyze- C:\USERS\DINA\DESKTOP\LAB4_PARPROGR\LAB1_PARPROGR\STDAFX.CPP
^C:\USERS\DINA\DESKTOP\LAB4_PARPROGR\LAB1_PARPROGR\LAB1_PARPROGR.CPP
/c /ZI /nologo /W3 /WX- /diagnostics:classic /Od /Oy- /D WIN32 /D _DEBUG /D _CONSOLE /D _UNICODE /D UNICODE /Gm /EHsc /RTC1 /MDd /GS /fp:precise /Zc:wchar_t /Zc:forScope /Zc:inline /Yu"stdafx.h" /Fp"DEBUG\LAB1_PARPROGR.PCH" /Fo"DEBUG\\" /Fd"DEBUG\VC141.PDB" /Gd /TP /analyze- C:\USERS\DINA\DESKTOP\LAB4_PARPROGR\LAB1_PARPROGR\LAB1_PARPROGR.CPP
