^\\LIVT-PFS\ROAMING PROFILES\K.PAVLOV\DOCUMENTS\VISUAL STUDIO 2012\PROJECTS\LAB1_PARPROGR\LAB1_PARPROGR\DEBUG\LAB1_PARPROGR.OBJ|\\LIVT-PFS\ROAMING PROFILES\K.PAVLOV\DOCUMENTS\VISUAL STUDIO 2012\PROJECTS\LAB1_PARPROGR\LAB1_PARPROGR\DEBUG\STDAFX.OBJ
\\LIVT-PFS\ROAMING PROFILES\K.PAVLOV\DOCUMENTS\VISUAL STUDIO 2012\PROJECTS\LAB1_PARPROGR\DEBUG\LAB1_PARPROGR.ILK
\\LIVT-PFS\ROAMING PROFILES\K.PAVLOV\DOCUMENTS\VISUAL STUDIO 2012\PROJECTS\LAB1_PARPROGR\DEBUG\LAB1_PARPROGR.EXE
\\LIVT-PFS\ROAMING PROFILES\K.PAVLOV\DOCUMENTS\VISUAL STUDIO 2012\PROJECTS\LAB1_PARPROGR\DEBUG\LAB1_PARPROGR.PDB
